{
    "content": [
        {
            "id": "40288382672fd1ce01672fd25e470001",
            "peopleId": "1",
            "gmtCreate": 1544584271000,
            "position": null,
            "image": "upload\\floorImage\\222.jpg",
            "called": false,
            "remark": null,
            "people": null
        },
        {
            "id": "40288382672fd1ce01672fd25eac0002",
            "peopleId": "2",
            "gmtCreate": 1544584271000,
            "position": null,
            "image": "upload\\floorImage\\222.jpg",
            "called": false,
            "remark": null,
            "people": null
        },
        {
            "id": "40288382672fd1ce01672fd25ed40003",
            "peopleId": "4028838266f71a380166f730fa2b0000",
            "gmtCreate": 1544584271000,
            "position": null,
            "image": "upload\\floorImage\\222.jpg",
            "called": false,
            "remark": null,
            "people": null
        },
        {
            "id": "40288382672fd1ce01672fd25f040004",
            "peopleId": "40288382671138720167113a4fce0000",
            "gmtCreate": 1544584271000,
            "position": null,
            "image": "upload\\floorImage\\222.jpg",
            "called": false,
            "remark": null,
            "people": null
        },
        {
            "id": "40288382672fd1ce01672fd25f940006",
            "peopleId": "1",
            "gmtCreate": 1544584271000,
            "position": null,
            "image": "upload\\floorImage\\222.jpg",
            "called": false,
            "remark": null,
            "people": null
        },
        {
            "id": "40288382672fd1ce01672fd260280007",
            "peopleId": "2",
            "gmtCreate": 1544584271000,
            "position": null,
            "image": "upload\\floorImage\\222.jpg",
            "called": false,
            "remark": null,
            "people": null
        },
        {
            "id": "40288382672fd1ce01672fd2605b0008",
            "peopleId": "4028838266f71a380166f730fa2b0000",
            "gmtCreate": 1544584271000,
            "position": null,
            "image": "upload\\floorImage\\222.jpg",
            "called": false,
            "remark": null,
            "people": null
        },
        {
            "id": "40288382672fd1ce01672fd260750009",
            "peopleId": "4028838266f71a380166f73e37ec0001",
            "gmtCreate": 1544584271000,
            "position": null,
            "image": "upload\\floorImage\\222.jpg",
            "called": false,
            "remark": null,
            "people": null
        },
        {
            "id": "40288382672fd1ce01672fd2609d000a",
            "peopleId": "40288382671138720167113a4fce0000",
            "gmtCreate": 1544584271000,
            "position": null,
            "image": "upload\\floorImage\\222.jpg",
            "called": false,
            "remark": null,
            "people": null
        },
        {
            "id": "40288382672fd1ce01672fd26101000c",
            "peopleId": "40288382671138720167113a4fce0000",
            "gmtCreate": 1544584271000,
            "position": null,
            "image": "upload\\floorImage\\222.jpg",
            "called": false,
            "remark": null,
            "people": null
        },
        {
            "id": "40288382672fd1ce01672fd26128000d",
            "peopleId": "40288382672fa6b701672fa86daf0000",
            "gmtCreate": 1544584271000,
            "position": null,
            "image": "upload\\floorImage\\Œ¢–≈Õº∆¨_20181120134629.jpg",
            "called": false,
            "remark": null,
            "people": null
        },
        {
            "id": "40288382672fd1ce01672fd27451000f",
            "peopleId": "1",
            "gmtCreate": 1544584271000,
            "position": null,
            "image": "upload\\floorImage\\222.jpg",
            "called": true,
            "remark": null,
            "people": null
        },
        {
            "id": "40288382672fd1ce01672fd274770010",
            "peopleId": "2",
            "gmtCreate": 1544584271000,
            "position": null,
            "image": "upload\\floorImage\\222.jpg",
            "called": false,
            "remark": null,
            "people": null
        },
        {
            "id": "40288382672fd1ce01672fd2749e0011",
            "peopleId": "4028838266f71a380166f730fa2b0000",
            "gmtCreate": 1544584271000,
            "position": null,
            "image": "upload\\floorImage\\222.jpg",
            "called": false,
            "remark": null,
            "people": null
        },
        {
            "id": "40288382672fd1ce01672fd274ba0012",
            "peopleId": "40288382671138720167113a4fce0000",
            "gmtCreate": 1544584271000,
            "position": null,
            "image": "upload\\floorImage\\222.jpg",
            "called": false,
            "remark": null,
            "people": null
        },
        {
            "id": "40288382672fd1ce01672fd2753c0014",
            "peopleId": "1",
            "gmtCreate": 1544584271000,
            "position": null,
            "image": "upload\\floorImage\\222.jpg",
            "called": false,
            "remark": null,
            "people": null
        },
        {
            "id": "40288382672fd1ce01672fd275610015",
            "peopleId": "2",
            "gmtCreate": 1544584271000,
            "position": null,
            "image": "upload\\floorImage\\222.jpg",
            "called": false,
            "remark": null,
            "people": null
        },
        {
            "id": "40288382672fd1ce01672fd275860016",
            "peopleId": "4028838266f71a380166f730fa2b0000",
            "gmtCreate": 1544584271000,
            "position": null,
            "image": "upload\\floorImage\\222.jpg",
            "called": false,
            "remark": null,
            "people": null
        },
        {
            "id": "40288382672fd1ce01672fd275a20017",
            "peopleId": "4028838266f71a380166f73e37ec0001",
            "gmtCreate": 1544584271000,
            "position": null,
            "image": "upload\\floorImage\\222.jpg",
            "called": false,
            "remark": null,
            "people": null
        },
        {
            "id": "40288382672fd1ce01672fd275ca0018",
            "peopleId": "40288382671138720167113a4fce0000",
            "gmtCreate": 1544584271000,
            "position": null,
            "image": "upload\\floorImage\\222.jpg",
            "called": false,
            "remark": null,
            "people": null
        }
    ],
    "last": false,
    "totalPages": 3,
    "totalElements": 46,
    "number": 0,
    "size": 20,
    "first": true,
    "sort": [
        {
            "direction": "ASC",
            "property": "id",
            "ignoreCase": false,
            "nullHandling": "NATIVE",
            "ascending": true
        }
    ],
    "numberOfElements": 20
}